C:\Users\adgam\Desktop\Proyecto1 Progra\progra-ii\Proyecto1Solitario\src\main\java\cr\ac\una\proyecto1solitario\util\LocalDateAdapter.java
C:\Users\adgam\Desktop\Proyecto1 Progra\progra-ii\Proyecto1Solitario\src\main\java\cr\ac\una\proyecto1solitario\util\FlowController.java
C:\Users\adgam\Desktop\Proyecto1 Progra\progra-ii\Proyecto1Solitario\src\main\java\cr\ac\una\proyecto1solitario\util\Formato.java
C:\Users\adgam\Desktop\Proyecto1 Progra\progra-ii\Proyecto1Solitario\src\main\java\cr\ac\una\proyecto1solitario\Casilla.java
C:\Users\adgam\Desktop\Proyecto1 Progra\progra-ii\Proyecto1Solitario\src\main\java\cr\ac\una\proyecto1solitario\controller\MenuJuegoViewController.java
C:\Users\adgam\Desktop\Proyecto1 Progra\progra-ii\Proyecto1Solitario\src\main\java\cr\ac\una\proyecto1solitario\Partida.java
C:\Users\adgam\Desktop\Proyecto1 Progra\progra-ii\Proyecto1Solitario\src\main\java\cr\ac\una\proyecto1solitario\util\BindingUtils.java
C:\Users\adgam\Desktop\Proyecto1 Progra\progra-ii\Proyecto1Solitario\src\main\java\cr\ac\una\proyecto1solitario\MazoCartas.java
C:\Users\adgam\Desktop\Proyecto1 Progra\progra-ii\Proyecto1Solitario\src\main\java\cr\ac\una\proyecto1solitario\controller\NombreViewController.java
C:\Users\adgam\Desktop\Proyecto1 Progra\progra-ii\Proyecto1Solitario\src\main\java\cr\ac\una\proyecto1solitario\Carta.java
C:\Users\adgam\Desktop\Proyecto1 Progra\progra-ii\Proyecto1Solitario\src\main\java\cr\ac\una\proyecto1solitario\controller\JuegoViewController.java
C:\Users\adgam\Desktop\Proyecto1 Progra\progra-ii\Proyecto1Solitario\src\main\java\cr\ac\una\proyecto1solitario\util\Mensaje.java
C:\Users\adgam\Desktop\Proyecto1 Progra\progra-ii\Proyecto1Solitario\src\main\java\cr\ac\una\proyecto1solitario\App.java
C:\Users\adgam\Desktop\Proyecto1 Progra\progra-ii\Proyecto1Solitario\src\main\java\cr\ac\una\proyecto1solitario\controller\InicioViewController.java
C:\Users\adgam\Desktop\Proyecto1 Progra\progra-ii\Proyecto1Solitario\src\main\java\cr\ac\una\proyecto1solitario\util\AppContext.java
C:\Users\adgam\Desktop\Proyecto1 Progra\progra-ii\Proyecto1Solitario\src\main\java\cr\ac\una\proyecto1solitario\util\LocalDateTimeAdapter.java
C:\Users\adgam\Desktop\Proyecto1 Progra\progra-ii\Proyecto1Solitario\src\main\java\cr\ac\una\proyecto1solitario\controller\AcercaDeViewController.java
C:\Users\adgam\Desktop\Proyecto1 Progra\progra-ii\Proyecto1Solitario\src\main\java\cr\ac\una\proyecto1solitario\Tablero.java
C:\Users\adgam\Desktop\Proyecto1 Progra\progra-ii\Proyecto1Solitario\src\main\java\cr\ac\una\proyecto1solitario\util\Respuesta.java
C:\Users\adgam\Desktop\Proyecto1 Progra\progra-ii\Proyecto1Solitario\src\main\java\cr\ac\una\proyecto1solitario\controller\Controller.java
C:\Users\adgam\Desktop\Proyecto1 Progra\progra-ii\Proyecto1Solitario\src\main\java\cr\ac\una\proyecto1solitario\controller\SlidePanelController.java
